<?xml version="1.0" encoding="UTF-8" standalone="no"?>
<!-- Created with Inkscape (http://www.inkscape.org/) -->

<svg
   xmlns:dc="http://purl.org/dc/elements/1.1/"
   xmlns:cc="http://creativecommons.org/ns#"
   xmlns:rdf="http://www.w3.org/1999/02/22-rdf-syntax-ns#"
   xmlns:svg="http://www.w3.org/2000/svg"
   xmlns="http://www.w3.org/2000/svg"
   xmlns:sodipodi="http://sodipodi.sourceforge.net/DTD/sodipodi-0.dtd"
   xmlns:inkscape="http://www.inkscape.org/namespaces/inkscape"
   width="297.49765mm"
   height="209.99835mm"
   viewBox="0 0 297.49765 209.99835"
   version="1.1"
   id="svg943"
   inkscape:version="0.92.4 (f8dce91, 2019-08-02)"
   sodipodi:docname="backgroundBankless13.svg">
  <defs
     id="defs937">
    <inkscape:perspective
       sodipodi:type="inkscape:persp3d"
       inkscape:vp_x="0 : 104.99917 : 1"
       inkscape:vp_y="0 : 1000 : 0"
       inkscape:vp_z="297.49765 : 104.99917 : 1"
       inkscape:persp3d-origin="148.74883 : 69.99945 : 1"
       id="perspective1501" />
  </defs>
  <sodipodi:namedview
     id="base"
     pagecolor="#ffffff"
     bordercolor="#666666"
     borderopacity="1.0"
     inkscape:pageopacity="0.0"
     inkscape:pageshadow="2"
     inkscape:zoom="0.5745283"
     inkscape:cx="277.07717"
     inkscape:cy="435.46339"
     inkscape:document-units="mm"
     inkscape:current-layer="layer1"
     showgrid="false"
     fit-margin-top="0"
     fit-margin-left="0"
     fit-margin-right="0"
     fit-margin-bottom="0"
     inkscape:window-width="1210"
     inkscape:window-height="736"
     inkscape:window-x="70"
     inkscape:window-y="27"
     inkscape:window-maximized="1"
     inkscape:lockguides="true" />
  <metadata
     id="metadata940">
    <rdf:RDF>
      <cc:Work
         rdf:about="">
        <dc:format>image/svg+xml</dc:format>
        <dc:type
           rdf:resource="http://purl.org/dc/dcmitype/StillImage" />
        <dc:title></dc:title>
      </cc:Work>
    </rdf:RDF>
  </metadata>
  <g
     inkscape:label="Layer 1"
     inkscape:groupmode="layer"
     id="layer1"
     transform="translate(0.46052271,-87.001648)">
    <rect
       y="87.001648"
       x="-0.46052271"
       height="209.99835"
       width="297.49765"
       id="rect1210"
       style="fill:#0000ff;fill-opacity:1;stroke:none;stroke-width:2.01699996;stroke-linecap:round;stroke-linejoin:round;stroke-miterlimit:4;stroke-dasharray:none;stroke-dashoffset:0;stroke-opacity:1;paint-order:normal" />
    <rect
       style="fill:#00ffff;fill-opacity:0.2;stroke:none;stroke-width:2.01699996;stroke-linecap:round;stroke-linejoin:round;stroke-miterlimit:4;stroke-dasharray:none;stroke-dashoffset:0;stroke-opacity:1;paint-order:normal"
       id="rect945"
       width="297.49765"
       height="209.99835"
       x="-0.46052271"
       y="87.001648" />
    <ellipse
       style="fill:#00ff00;fill-opacity:1;stroke:#000000;stroke-width:1.78359699;stroke-linecap:round;stroke-linejoin:round;stroke-miterlimit:4;stroke-dasharray:none;stroke-dashoffset:0;stroke-opacity:1;paint-order:normal"
       id="path949"
       cy="249.10564"
       cx="235.78761"
       rx="61.249519"
       ry="47.89436" />
    <path
       style="fill:#00ff00;fill-opacity:1;stroke:#000000;stroke-width:1.16451538;stroke-linecap:round;stroke-linejoin:round;stroke-miterlimit:4;stroke-dasharray:none;stroke-dashoffset:0;stroke-opacity:1;paint-order:normal"
       d="M -0.46052271,262.4608 239.76477,225.13423 l 57.27236,16.14252 0,55.72324 H -0.46052271 Z"
       id="rect951"
       inkscape:connector-curvature="0"
       sodipodi:nodetypes="cccccc" />
    <ellipse
       style="fill:#550000;fill-opacity:1;stroke:none;stroke-width:1.75332773;stroke-linecap:round;stroke-linejoin:round;stroke-miterlimit:4;stroke-dasharray:none;stroke-dashoffset:0;stroke-opacity:1;paint-order:normal"
       id="ellipse1777"
       cy="249.08128"
       cx="235.78761"
       rx="61.249519"
       ry="46.282532" />
    <ellipse
       ry="46.282532"
       rx="61.249519"
       cx="235.78761"
       cy="249.61044"
       id="ellipse1499"
       style="fill:#00ff00;fill-opacity:1;stroke:none;stroke-width:1.75332773;stroke-linecap:round;stroke-linejoin:round;stroke-miterlimit:4;stroke-dasharray:none;stroke-dashoffset:0;stroke-opacity:1;paint-order:normal" />
    <path
       id="ellipse1497"
       style="fill:#00ff00;fill-opacity:1;stroke:#000000;stroke-width:1.78359699;stroke-linecap:round;stroke-linejoin:round;stroke-miterlimit:4;stroke-dasharray:none;stroke-dashoffset:0;stroke-opacity:1;paint-order:normal"
       sodipodi:type="arc"
       sodipodi:cx="235.78761"
       sodipodi:cy="242.75572"
       sodipodi:rx="61.249519"
       sodipodi:ry="23.971407"
       sodipodi:start="6.1038054"
       sodipodi:end="3.4374773"
       d="m 296.05435,238.47876 a 61.249519,23.971407 0 0 1 -28.53708,24.78107 61.249519,23.971407 0 0 1 -69.33413,-1.5825 61.249519,23.971407 0 0 1 -20.98342,-25.91134"
       sodipodi:open="true" />
    <path
       d="m 275.13808,211.86727 a 47.433842,45.82201 0 0 1 -39.14675,18.3428 47.433842,45.82201 0 0 1 -38.15576,-20.19769"
       sodipodi:end="2.5485269"
       sodipodi:start="0.64273411"
       sodipodi:ry="45.82201"
       sodipodi:rx="47.433842"
       sodipodi:cy="184.40219"
       sodipodi:cx="237.16919"
       sodipodi:type="arc"
       id="path3587"
       style="fill:#550000;fill-opacity:1;stroke:none;stroke-width:2.01999998;stroke-linecap:round;stroke-linejoin:round;stroke-miterlimit:4;stroke-dasharray:none;stroke-dashoffset:0;stroke-opacity:1;paint-order:normal"
       sodipodi:open="true" />
    <path
       style="fill:#550000;fill-opacity:1;stroke:none;stroke-width:1.88733268;stroke-linecap:round;stroke-linejoin:round;stroke-miterlimit:4;stroke-dasharray:none;stroke-dashoffset:0;stroke-opacity:1;paint-order:normal"
       id="ellipse1781"
       sodipodi:type="arc"
       sodipodi:cx="235.78761"
       sodipodi:cy="254.65283"
       sodipodi:rx="61.249519"
       sodipodi:ry="53.627533"
       sodipodi:start="4.0958834"
       sodipodi:end="5.3570203"
       d="m 200.3739,210.89792 a 61.249519,53.627533 0 0 1 72.21878,0.88928"
       sodipodi:open="true" />
  </g>
</svg>
