<?xml version="1.0" encoding="UTF-8" standalone="no"?>
<!-- Created with Inkscape (http://www.inkscape.org/) -->

<svg
   xmlns:dc="http://purl.org/dc/elements/1.1/"
   xmlns:cc="http://creativecommons.org/ns#"
   xmlns:rdf="http://www.w3.org/1999/02/22-rdf-syntax-ns#"
   xmlns:svg="http://www.w3.org/2000/svg"
   xmlns="http://www.w3.org/2000/svg"
   xmlns:sodipodi="http://sodipodi.sourceforge.net/DTD/sodipodi-0.dtd"
   xmlns:inkscape="http://www.inkscape.org/namespaces/inkscape"
   width="119.93707mm"
   height="381.65143mm"
   viewBox="0 0 119.93707 381.65143"
   version="1.1"
   id="svg2147"
   inkscape:version="0.92.4 (f8dce91, 2019-08-02)"
   sodipodi:docname="criminalTrigger4.svg">
  <defs
     id="defs2141" />
  <sodipodi:namedview
     id="base"
     pagecolor="#ffffff"
     bordercolor="#666666"
     borderopacity="1.0"
     inkscape:pageopacity="0.0"
     inkscape:pageshadow="2"
     inkscape:zoom="0.31302649"
     inkscape:cx="401.60435"
     inkscape:cy="773.73065"
     inkscape:document-units="mm"
     inkscape:current-layer="layer1"
     showgrid="false"
     inkscape:window-width="1210"
     inkscape:window-height="736"
     inkscape:window-x="70"
     inkscape:window-y="27"
     inkscape:window-maximized="1"
     fit-margin-top="0"
     fit-margin-left="0"
     fit-margin-right="0"
     fit-margin-bottom="0" />
  <metadata
     id="metadata2144">
    <rdf:RDF>
      <cc:Work
         rdf:about="">
        <dc:format>image/svg+xml</dc:format>
        <dc:type
           rdf:resource="http://purl.org/dc/dcmitype/StillImage" />
        <dc:title />
      </cc:Work>
    </rdf:RDF>
  </metadata>
  <g
     inkscape:label="Layer 1"
     inkscape:groupmode="layer"
     id="layer1"
     transform="translate(-66.766352,110.10124)">
    <g
       inkscape:label="Hands"
       id="layer2"
       inkscape:groupmode="layer"
       transform="translate(292.90896,13.926574)">
      <rect
         style="fill:#000000;fill-opacity:1;stroke:none;stroke-width:1.75880623;stroke-linecap:round;stroke-linejoin:round;stroke-miterlimit:4;stroke-dasharray:none;stroke-dashoffset:0;stroke-opacity:1;paint-order:normal"
         id="rect944"
         width="116.52951"
         height="176.39789"
         x="-222.73505"
         y="6.7236991"
         ry="58.264755" />
    </g>
    <g
       id="g1084"
       transform="translate(5.2916667,-5.2916667)">
      <circle
         r="58.964287"
         cy="-45.845284"
         cx="120.43897"
         id="path82"
         style="fill:#ffccaa;fill-opacity:1;stroke:none;stroke-width:1.4367671;stroke-linecap:round;stroke-linejoin:round;stroke-miterlimit:4;stroke-dasharray:none;stroke-dashoffset:0;stroke-opacity:1;paint-order:normal" />
      <path
         sodipodi:nodetypes="ccccccccccc"
         inkscape:connector-curvature="0"
         id="rect84"
         d="m 68.47502,-76.808267 41.02607,0.699604 10.13442,4.947479 9.62044,-5.258687 42.07001,0.15009 6.46184,28.001302 -46.97102,0.247911 -11.18554,-5.632775 -10.76241,4.925476 -47.39414,0.459388 z"
         style="fill:#000000;fill-opacity:1;stroke:none;stroke-width:1.4367671;stroke-linecap:round;stroke-linejoin:round;stroke-miterlimit:4;stroke-dasharray:none;stroke-dashoffset:0;stroke-opacity:1;paint-order:normal" />
      <g
         id="g917"
         transform="matrix(0.71232877,0,0,0.71232877,216.14988,-126.46535)">
        <ellipse
           style="fill:#0000ff;fill-opacity:1;stroke:none;stroke-width:1.00849998;stroke-linecap:round;stroke-linejoin:round;stroke-miterlimit:4;stroke-dasharray:none;stroke-dashoffset:0;stroke-opacity:1;paint-order:normal"
           id="path89"
           cx="-178.95944"
           cy="89.421181"
           rx="14.176675"
           ry="9.8551407" />
        <ellipse
           ry="4.9275703"
           rx="7.0883374"
           cy="89.421181"
           cx="-178.95944"
           id="ellipse898"
           style="fill:#000019;fill-opacity:1;stroke:none;stroke-width:0.50424999;stroke-linecap:round;stroke-linejoin:round;stroke-miterlimit:4;stroke-dasharray:none;stroke-dashoffset:0;stroke-opacity:1;paint-order:normal" />
      </g>
      <g
         transform="matrix(0.71232877,0,0,0.71232877,276.46039,-126.46535)"
         id="g923">
        <ellipse
           ry="9.8551407"
           rx="14.176675"
           cy="89.421181"
           cx="-178.95944"
           id="ellipse919"
           style="fill:#0000ff;fill-opacity:1;stroke:none;stroke-width:1.00849998;stroke-linecap:round;stroke-linejoin:round;stroke-miterlimit:4;stroke-dasharray:none;stroke-dashoffset:0;stroke-opacity:1;paint-order:normal" />
        <ellipse
           style="fill:#000019;fill-opacity:1;stroke:none;stroke-width:0.50424999;stroke-linecap:round;stroke-linejoin:round;stroke-miterlimit:4;stroke-dasharray:none;stroke-dashoffset:0;stroke-opacity:1;paint-order:normal"
           id="ellipse921"
           cx="-178.95944"
           cy="89.421181"
           rx="7.0883374"
           ry="4.9275703" />
      </g>
      <path
         sodipodi:nodetypes="cssccc"
         inkscape:connector-curvature="0"
         id="path925"
         d="m 146.01709,-21.398006 c 0,8.849609 -4.72121,12.180601 -12.38519,16.605402 -7.66399,4.424808 -17.10641,4.424808 -24.77039,0 -7.66398,-4.424808 -21.00098,-15.833103 -21.00098,-24.682705 l 33.92466,5.923356 z"
         style="fill:#000019;fill-opacity:1;stroke:none;stroke-width:1.4367671;stroke-linecap:round;stroke-linejoin:round;stroke-miterlimit:4;stroke-dasharray:none;stroke-dashoffset:0;stroke-opacity:1;paint-order:normal" />
      <path
         d="m 76.4602,-85.121927 a 58.964287,58.964287 0 0 1 43.48475,-19.685573 58.964287,58.964287 0 0 1 43.8085,18.95418"
         sodipodi:open="true"
         sodipodi:end="5.5374488"
         sodipodi:start="3.8705724"
         sodipodi:ry="58.964287"
         sodipodi:rx="58.964287"
         sodipodi:cy="-45.845284"
         sodipodi:cx="120.43897"
         sodipodi:type="arc"
         style="fill:#000000;fill-opacity:1;stroke:none;stroke-width:1.4367671;stroke-linecap:round;stroke-linejoin:round;stroke-miterlimit:4;stroke-dasharray:none;stroke-dashoffset:0;stroke-opacity:1;paint-order:normal"
         id="circle930" />
    </g>
    <g
       id="g1179"
       transform="translate(0,31.750001)">
      <path
         sodipodi:nodetypes="ccccccccc"
         inkscape:connector-curvature="0"
         id="rect2694"
         d="M 68.107918,48.364021 H 173.79684 v 13.46276 l -42.57043,1.413052 -0.44665,76.450057 H 112.6369 L 111.57338,62.074704 68.107918,61.826781 Z"
         style="fill:#ff0000;fill-opacity:1;stroke:#000000;stroke-width:2.01999998;stroke-linecap:round;stroke-linejoin:round;stroke-miterlimit:4;stroke-dasharray:none;stroke-dashoffset:0;stroke-opacity:1;paint-order:normal" />
      <g
         id="g1136">
        <ellipse
           style="fill:#ffccaa;fill-opacity:1;stroke:none;stroke-width:2.01699996;stroke-linecap:round;stroke-linejoin:round;stroke-miterlimit:4;stroke-dasharray:none;stroke-dashoffset:0;stroke-opacity:1;paint-order:normal"
           id="path1122"
           cx="76.735458"
           cy="55.639446"
           rx="5.60322"
           ry="11.953536" />
        <ellipse
           ry="11.953536"
           rx="5.60322"
           cy="55.639446"
           cx="87.318787"
           id="ellipse1124"
           style="fill:#ffccaa;fill-opacity:1;stroke:none;stroke-width:2.01699996;stroke-linecap:round;stroke-linejoin:round;stroke-miterlimit:4;stroke-dasharray:none;stroke-dashoffset:0;stroke-opacity:1;paint-order:normal" />
        <ellipse
           style="fill:#ffccaa;fill-opacity:1;stroke:none;stroke-width:2.01699996;stroke-linecap:round;stroke-linejoin:round;stroke-miterlimit:4;stroke-dasharray:none;stroke-dashoffset:0;stroke-opacity:1;paint-order:normal"
           id="ellipse1126"
           cx="97.902115"
           cy="55.639446"
           rx="5.60322"
           ry="11.953536" />
        <ellipse
           style="fill:#ffccaa;fill-opacity:1;stroke:none;stroke-width:2.20821714;stroke-linecap:round;stroke-linejoin:round;stroke-miterlimit:4;stroke-dasharray:none;stroke-dashoffset:0;stroke-opacity:1;paint-order:normal"
           id="path1130"
           cx="87.717773"
           cy="46.898422"
           rx="13.298308"
           ry="5.0055432" />
      </g>
      <g
         transform="translate(64.997351,-0.89651519)"
         id="g1146">
        <ellipse
           ry="11.953536"
           rx="5.60322"
           cy="55.639446"
           cx="76.735458"
           id="ellipse1138"
           style="fill:#ffccaa;fill-opacity:1;stroke:none;stroke-width:2.01699996;stroke-linecap:round;stroke-linejoin:round;stroke-miterlimit:4;stroke-dasharray:none;stroke-dashoffset:0;stroke-opacity:1;paint-order:normal" />
        <ellipse
           style="fill:#ffccaa;fill-opacity:1;stroke:none;stroke-width:2.01699996;stroke-linecap:round;stroke-linejoin:round;stroke-miterlimit:4;stroke-dasharray:none;stroke-dashoffset:0;stroke-opacity:1;paint-order:normal"
           id="ellipse1140"
           cx="87.318787"
           cy="55.639446"
           rx="5.60322"
           ry="11.953536" />
        <ellipse
           ry="11.953536"
           rx="5.60322"
           cy="55.639446"
           cx="97.902115"
           id="ellipse1142"
           style="fill:#ffccaa;fill-opacity:1;stroke:none;stroke-width:2.01699996;stroke-linecap:round;stroke-linejoin:round;stroke-miterlimit:4;stroke-dasharray:none;stroke-dashoffset:0;stroke-opacity:1;paint-order:normal" />
        <ellipse
           ry="5.0055432"
           rx="13.298308"
           cy="46.898422"
           cx="87.717773"
           id="ellipse1144"
           style="fill:#ffccaa;fill-opacity:1;stroke:none;stroke-width:2.20821714;stroke-linecap:round;stroke-linejoin:round;stroke-miterlimit:4;stroke-dasharray:none;stroke-dashoffset:0;stroke-opacity:1;paint-order:normal" />
      </g>
    </g>
    <rect
       style="fill:#ff0000;fill-opacity:1;stroke:#000000;stroke-width:2.01699996;stroke-linecap:round;stroke-linejoin:round;stroke-miterlimit:4;stroke-dasharray:none;stroke-dashoffset:0;stroke-opacity:1;paint-order:normal"
       id="rect2149"
       width="104.32143"
       height="131.53574"
       x="68.791664"
       y="139.00595" />
    <path
       style="fill:#00ffff;fill-opacity:1;stroke:none;stroke-width:24.35355377;stroke-linecap:round;stroke-linejoin:round;stroke-miterlimit:4;stroke-dasharray:none;stroke-dashoffset:0;stroke-opacity:1;paint-order:normal"
       d="m 82.943422,179.66555 c -21.449433,-9.32287 -21.057797,-32.63472 0.700993,-41.72612 29.782225,-12.44381 63.782335,6.10433 53.312295,29.08355 -6.93847,15.22828 -33.66924,21.485 -54.013288,12.64257 z M 121.7189,163.43914 c 4.6163,-12.02987 -11.75156,-21.98887 -27.340386,-16.63523 -15.074327,5.17696 -15.063607,19.07676 0.01853,24.18165 9.903716,3.35212 24.708766,-0.73713 27.321736,-7.54642 z"
       id="path5250"
       inkscape:connector-curvature="0"
       transform="matrix(0.26458333,0,0,0.26458333,66.766352,-110.10124)" />
    <path
       style="fill:#00ffff;fill-opacity:1;stroke:none;stroke-width:24.35355377;stroke-linecap:round;stroke-linejoin:round;stroke-miterlimit:4;stroke-dasharray:none;stroke-dashoffset:0;stroke-opacity:1;paint-order:normal"
       d="m 309.76129,179.83962 c -21.66144,-9.77826 -21.17852,-31.09227 0.9423,-41.58929 23.67703,-11.23549 54.16266,0.37061 54.16266,20.62011 0,19.68678 -31.4414,31.65122 -55.10496,20.96918 z m 38.8711,-15.54308 c 5.35815,-8.49442 -1.61767,-16.4412 -15.46016,-17.61205 -13.80014,-1.16727 -21.72736,4.05604 -20.37269,13.42374 2.00787,13.88457 27.81395,16.90091 35.83285,4.18831 z"
       id="path5256"
       inkscape:connector-curvature="0"
       transform="matrix(0.26458333,0,0,0.26458333,66.766352,-110.10124)" />
  </g>
</svg>
