<?xml version="1.0" encoding="UTF-8" standalone="no"?>
<!-- Created with Inkscape (http://www.inkscape.org/) -->

<svg
   xmlns:dc="http://purl.org/dc/elements/1.1/"
   xmlns:cc="http://creativecommons.org/ns#"
   xmlns:rdf="http://www.w3.org/1999/02/22-rdf-syntax-ns#"
   xmlns:svg="http://www.w3.org/2000/svg"
   xmlns="http://www.w3.org/2000/svg"
   xmlns:sodipodi="http://sodipodi.sourceforge.net/DTD/sodipodi-0.dtd"
   xmlns:inkscape="http://www.inkscape.org/namespaces/inkscape"
   width="110.87794mm"
   height="69.296761mm"
   viewBox="0 0 110.87794 69.296759"
   version="1.1"
   id="svg8"
   inkscape:version="0.92.4 (f8dce91, 2019-08-02)"
   sodipodi:docname="menu.svg">
  <defs
     id="defs2" />
  <sodipodi:namedview
     id="base"
     pagecolor="#ffffff"
     bordercolor="#666666"
     borderopacity="1.0"
     inkscape:pageopacity="0.0"
     inkscape:pageshadow="2"
     inkscape:zoom="1.6250114"
     inkscape:cx="100.95213"
     inkscape:cy="131.75656"
     inkscape:document-units="mm"
     inkscape:current-layer="layer1"
     showgrid="false"
     inkscape:window-width="1210"
     inkscape:window-height="736"
     inkscape:window-x="70"
     inkscape:window-y="27"
     inkscape:window-maximized="1"
     fit-margin-top="0"
     fit-margin-left="0"
     fit-margin-right="0"
     fit-margin-bottom="0" />
  <metadata
     id="metadata5">
    <rdf:RDF>
      <cc:Work
         rdf:about="">
        <dc:format>image/svg+xml</dc:format>
        <dc:type
           rdf:resource="http://purl.org/dc/dcmitype/StillImage" />
        <dc:title></dc:title>
      </cc:Work>
    </rdf:RDF>
  </metadata>
  <g
     inkscape:label="Layer 1"
     inkscape:groupmode="layer"
     id="layer1"
     transform="translate(-63.247451,-90.372451)">
    <rect
       style="fill:#008000;fill-opacity:1;stroke:#000000;stroke-width:2.01699996;stroke-linecap:round;stroke-linejoin:round;stroke-miterlimit:4;stroke-dasharray:none;stroke-dashoffset:0;stroke-opacity:1;paint-order:normal"
       id="rect12"
       width="108.86094"
       height="67.279762"
       x="64.255951"
       y="91.380951" />
    <rect
       y="104.14451"
       x="77.819847"
       height="40.614098"
       width="81.733147"
       id="rect14"
       style="fill:#00ff00;fill-opacity:1;stroke:none;stroke-width:1.3578918;stroke-linecap:round;stroke-linejoin:round;stroke-miterlimit:4;stroke-dasharray:none;stroke-dashoffset:0;stroke-opacity:1;paint-order:normal" />
    <circle
       style="fill:#008000;fill-opacity:1;stroke:none;stroke-width:1.79629838;stroke-linecap:round;stroke-linejoin:round;stroke-miterlimit:4;stroke-dasharray:none;stroke-dashoffset:0;stroke-opacity:1;paint-order:normal"
       id="path821"
       cx="78.003342"
       cy="105.12828"
       r="12.678098" />
    <circle
       r="12.678098"
       cy="105.12828"
       cx="159.41302"
       id="circle823"
       style="fill:#008000;fill-opacity:1;stroke:none;stroke-width:1.79629838;stroke-linecap:round;stroke-linejoin:round;stroke-miterlimit:4;stroke-dasharray:none;stroke-dashoffset:0;stroke-opacity:1;paint-order:normal" />
    <circle
       style="fill:#008000;fill-opacity:1;stroke:none;stroke-width:1.79629838;stroke-linecap:round;stroke-linejoin:round;stroke-miterlimit:4;stroke-dasharray:none;stroke-dashoffset:0;stroke-opacity:1;paint-order:normal"
       id="circle825"
       cx="159.08739"
       cy="144.69339"
       r="12.678098" />
    <circle
       r="12.678098"
       cy="145.18185"
       cx="77.677704"
       id="circle827"
       style="fill:#008000;fill-opacity:1;stroke:none;stroke-width:1.79629838;stroke-linecap:round;stroke-linejoin:round;stroke-miterlimit:4;stroke-dasharray:none;stroke-dashoffset:0;stroke-opacity:1;paint-order:normal" />
    <text
       xml:space="preserve"
       style="font-style:normal;font-weight:normal;font-size:19.7555542px;line-height:1.25;font-family:sans-serif;text-align:center;letter-spacing:0px;word-spacing:0px;text-anchor:middle;fill:#000000;fill-opacity:1;stroke:none;stroke-width:0.26458332"
       x="117.42591"
       y="130.98167"
       id="text911"><tspan
         sodipodi:role="line"
         x="117.42591"
         y="130.98167"
         id="tspan909"
         style="stroke-width:0.26458332">Menu<tspan
   x="117.42591"
   y="130.98167"
   style="font-size:19.7555542px;line-height:1.25;text-align:center;text-anchor:middle;fill:#000000;stroke-width:0.26458332"
   id="tspan907" /></tspan></text>
    <text
       xml:space="preserve"
       style="font-style:normal;font-weight:normal;font-size:19.49809074px;line-height:1.25;font-family:sans-serif;text-align:center;letter-spacing:0px;word-spacing:0px;text-anchor:middle;fill:#000000;fill-opacity:1;stroke:none;stroke-width:0.3655892"
       x="75.900467"
       y="109.52465"
       id="text917"><tspan
         sodipodi:role="line"
         x="75.900467"
         y="109.52465"
         id="tspan915"
         style="stroke-width:0.3655892"><tspan
           x="75.900467"
           y="109.52465"
           id="tspan913"
           style="stroke-width:0.3655892">$</tspan></tspan></text>
    <text
       xml:space="preserve"
       style="font-style:normal;font-weight:normal;font-size:19.49809074px;line-height:1.25;font-family:sans-serif;text-align:center;letter-spacing:0px;word-spacing:0px;text-anchor:middle;fill:#000000;fill-opacity:1;stroke:none;stroke-width:0.3655892"
       x="159.5088"
       y="109.52465"
       id="text935"><tspan
         sodipodi:role="line"
         x="159.5088"
         y="109.52465"
         id="tspan933"
         style="stroke-width:0.3655892"><tspan
           x="159.5088"
           y="109.52465"
           id="tspan931"
           style="stroke-width:0.3655892">$</tspan></tspan></text>
    <text
       xml:space="preserve"
       style="font-style:normal;font-weight:normal;font-size:19.49809074px;line-height:1.25;font-family:sans-serif;text-align:center;letter-spacing:0px;word-spacing:0px;text-anchor:middle;fill:#000000;fill-opacity:1;stroke:none;stroke-width:0.3655892"
       x="159.5088"
       y="151.85799"
       id="text929"><tspan
         sodipodi:role="line"
         x="159.5088"
         y="151.85799"
         id="tspan927"
         style="stroke-width:0.3655892"><tspan
           x="159.5088"
           y="151.85799"
           id="tspan925"
           style="stroke-width:0.3655892">$</tspan></tspan></text>
    <text
       xml:space="preserve"
       style="font-style:normal;font-weight:normal;font-size:19.49809074px;line-height:1.25;font-family:sans-serif;text-align:center;letter-spacing:0px;word-spacing:0px;text-anchor:middle;fill:#000000;fill-opacity:1;stroke:none;stroke-width:0.3655892"
       x="74.842133"
       y="151.85799"
       id="text923"><tspan
         sodipodi:role="line"
         x="74.842133"
         y="151.85799"
         id="tspan921"
         style="stroke-width:0.3655892"><tspan
           x="74.842133"
           y="151.85799"
           id="tspan919"
           style="stroke-width:0.3655892">$</tspan></tspan></text>
  </g>
</svg>
